Data In The Wild - 2.2: Writing Functions
…
# Let's first demonstrate applying our new function to a vector
# Only show the first 10 rows as well
head(c_to_f(tank_data$avg_daily_temp))

[1] 74.43113 74.75503 73.53104 74.74281 75.92940 73.86383

# Mutate is basically doing the same thing
tank_data <- tank_data %>%
  mutate(avg_daily_temp_F = c_to_f(avg_daily_temp))

# View mutate() results
tank_data

# A tibble: 1,000 × 8
   tank_id species avg_daily_temp num_fish day_length tank_volume size_day_30
     <dbl> <chr>            <dbl>    <dbl>      <dbl>       <dbl>       <dbl>
 1       1 tilapia           23.6      105         10        401.       2780.
 2       2 tilapia           23.8      102         10        399.       2786.
 3       3 tilapia           23.1      109         10        399.       2781.
 4       4 tilapia           23.7       98         12        401.       2785.
 5       5 tilapia           24.4      103         10        400.       2786.
 6       6 tilapia           23.3       97         10        400.       2783.
 7       7 tilapia           23.5      101         11        400.       2784.
 8       8 tilapia           24.9       99         10        401.       2789.
 9       9 tilapia           23.7      102          9        400.       2788.
10      10 tilapia           23.8       95         10        399.       2785.
# ℹ 990 more rows
# ℹ 1 more variable: avg_daily_temp_F <dbl>
…
