Data In The Wild - 2.5: Sick Fish
…
Before we start calculating means and plotting, let’s create a new column in our data frame to indicate whether the tank temperature is above or below the cutoff temperature. We will use our fish-specific data frames to do this.

A useful function that we can use when we want to create a new column based on values in another column is the if_else() function. It operates the following way:

IF a condition is true, do [something].

IF a condition is false, do [something ELSE].

# Start with tilapia dataframe
sick_tilapia %>% 
  mutate(temp_cutoff = if_else(condition = avg_daily_tempF >= 75,
                               true = "above",
                               false = "below"))

# A tibble: 31 × 9
   tank_id species avg_daily_temp num_fish day_length tank_volume num_sick
     <dbl> <chr>            <dbl>    <dbl>      <dbl>       <dbl>    <dbl>
 1     388 tilapia           24.3       93         10        399.        3
 2     425 tilapia           24.6       98         11        400.        4
 3     420 tilapia           23.0      103          9        399.        2
 4     176 tilapia           23.3       98         10        400.        3
 5     454 tilapia           23.8      104         10        400.        0
 6     204 tilapia           24.0       99         10        399.        6
 7     515 tilapia           23.8      100         10        399.        7
 8     715 tilapia           24.0      102         11        401.        5
 9     186 tilapia           24.4      100         10        402.        0
10     678 tilapia           23.8      102         10        400.        4
# ℹ 21 more rows
# ℹ 2 more variables: avg_daily_tempF <dbl>, temp_cutoff <chr>

Individual Challenge

Practice using the if_else() function as we did above. This time, use the sick_trout dataframe. Remember to change the bits of the code that you need to!

# Modify the code below to do the same operation for the trout
sick_tilapia %>% 
  mutate(temp_cutoff = if_else(condition = avg_daily_tempF >= 75,
                               true = "above",
                               false = "below"))

# A tibble: 31 × 9
   tank_id species avg_daily_temp num_fish day_length tank_volume num_sick
     <dbl> <chr>            <dbl>    <dbl>      <dbl>       <dbl>    <dbl>
 1     388 tilapia           24.3       93         10        399.        3
 2     425 tilapia           24.6       98         11        400.        4
 3     420 tilapia           23.0      103          9        399.        2
 4     176 tilapia           23.3       98         10        400.        3
 5     454 tilapia           23.8      104         10        400.        0
 6     204 tilapia           24.0       99         10        399.        6
 7     515 tilapia           23.8      100         10        399.        7
 8     715 tilapia           24.0      102         11        401.        5
 9     186 tilapia           24.4      100         10        402.        0
10     678 tilapia           23.8      102         10        400.        4
# ℹ 21 more rows
# ℹ 2 more variables: avg_daily_tempF <dbl>, temp_cutoff <chr>
…
