Data In The Wild - 3.5: K-Nearest Neighbor
…
We have predictions! Our last step is to recombine our data so that the collars now have their new labels.

# Let's bind the columns together
new_labels <- bind_cols(unknown_collar_ids, knn_predict)

New names:
• `` -> `...2`

# View collars now with known makers!
new_labels

# A tibble: 50 × 2
   collar_id ...2              
       <dbl> <fct>             
 1       129 Budget Collars LLC
 2       138 Budget Collars LLC
 3       134 Budget Collars LLC
 4       140 Budget Collars LLC
 5       104 Collarium Inc.    
 6       118 Collarium Inc.    
 7       105 Collarium Inc.    
 8       127 Collarium Inc.    
 9       111 Collarium Inc.    
10       125 Collarium Inc.    
# ℹ 40 more rows
…
