Data In The Wild - 1.3: 2-Dimensional Data and the tidyverse
…
Climate Data

To learn about the tidyverse syntax, we’re going to use a real data set on climate change from Berkeley, CA, USA. It outlines temperatures in major cities across the world since 1750.

# Read in the data file

# `read_csv() is part of the `tidyverse`
# It gives us nice options when reading in data
climate_df <- read_csv("data/global_temps.csv")

# Let's take a look at the climate data
climate_df

# A tibble: 239,177 × 7
   dt         AverageTemperature AverageTemperatureUnce…¹ City  Country Latitude
   <date>                  <dbl>                    <dbl> <chr> <chr>   <chr>   
 1 1849-01-01               26.7                     1.44 Abid… Côte D… 5.63N   
 2 1849-02-01               27.4                     1.36 Abid… Côte D… 5.63N   
 3 1849-03-01               28.1                     1.61 Abid… Côte D… 5.63N   
 4 1849-04-01               26.1                     1.39 Abid… Côte D… 5.63N   
 5 1849-05-01               25.4                     1.2  Abid… Côte D… 5.63N   
 6 1849-06-01               24.8                     1.40 Abid… Côte D… 5.63N   
 7 1849-07-01               24.1                     1.25 Abid… Côte D… 5.63N   
 8 1849-08-01               23.6                     1.26 Abid… Côte D… 5.63N   
 9 1849-09-01               23.7                     1.23 Abid… Côte D… 5.63N   
10 1849-10-01               25.3                     1.18 Abid… Côte D… 5.63N   
# ℹ 239,167 more rows
# ℹ abbreviated name: ¹​AverageTemperatureUncertainty
# ℹ 1 more variable: Longitude <chr>
…
select()ing columns

Let’s use our first function, select(). Select allows us to pick out specific columns from our data. You can use names or their position in the data frame.

First, let’s remind ourselves how we would accomplish this in base R.

# Column selection in base R
# Option 1: climate_df$dt

# Option 2:
# Select multiple columns, in this case the first two
climate_df[, 1:2]

# A tibble: 239,177 × 2
   dt         AverageTemperature
   <date>                  <dbl>
 1 1849-01-01               26.7
 2 1849-02-01               27.4
 3 1849-03-01               28.1
 4 1849-04-01               26.1
 5 1849-05-01               25.4
 6 1849-06-01               24.8
 7 1849-07-01               24.1
 8 1849-08-01               23.6
 9 1849-09-01               23.7
10 1849-10-01               25.3
# ℹ 239,167 more rows

The select() function does the same thing but with more power (and, in my opinion, more easily). The first argument in the function is the data frame. Any following arguments are the columns we want to select.

# First argument is the data frame, then the columns
select(climate_df, dt)

# A tibble: 239,177 × 1
   dt        
   <date>    
 1 1849-01-01
 2 1849-02-01
 3 1849-03-01
 4 1849-04-01
 5 1849-05-01
 6 1849-06-01
 7 1849-07-01
 8 1849-08-01
 9 1849-09-01
10 1849-10-01
# ℹ 239,167 more rows

# Multiple columns:

# City and Country
select(climate_df, dt, City, Country)

# A tibble: 239,177 × 3
   dt         City    Country      
   <date>     <chr>   <chr>        
 1 1849-01-01 Abidjan Côte D'Ivoire
 2 1849-02-01 Abidjan Côte D'Ivoire
 3 1849-03-01 Abidjan Côte D'Ivoire
 4 1849-04-01 Abidjan Côte D'Ivoire
 5 1849-05-01 Abidjan Côte D'Ivoire
 6 1849-06-01 Abidjan Côte D'Ivoire
 7 1849-07-01 Abidjan Côte D'Ivoire
 8 1849-08-01 Abidjan Côte D'Ivoire
 9 1849-09-01 Abidjan Côte D'Ivoire
10 1849-10-01 Abidjan Côte D'Ivoire
# ℹ 239,167 more rows

# All columns until Country
select(climate_df, dt:Country)

# A tibble: 239,177 × 5
   dt         AverageTemperature AverageTemperatureUncertainty City    Country  
   <date>                  <dbl>                         <dbl> <chr>   <chr>    
 1 1849-01-01               26.7                          1.44 Abidjan Côte D'I…
 2 1849-02-01               27.4                          1.36 Abidjan Côte D'I…
 3 1849-03-01               28.1                          1.61 Abidjan Côte D'I…
 4 1849-04-01               26.1                          1.39 Abidjan Côte D'I…
 5 1849-05-01               25.4                          1.2  Abidjan Côte D'I…
 6 1849-06-01               24.8                          1.40 Abidjan Côte D'I…
 7 1849-07-01               24.1                          1.25 Abidjan Côte D'I…
 8 1849-08-01               23.6                          1.26 Abidjan Côte D'I…
 9 1849-09-01               23.7                          1.23 Abidjan Côte D'I…
10 1849-10-01               25.3                          1.18 Abidjan Côte D'I…
# ℹ 239,167 more rows

# All columns except City
select(climate_df, -City)

# A tibble: 239,177 × 6
   dt         AverageTemperature AverageTemperatureUncertainty Country  Latitude
   <date>                  <dbl>                         <dbl> <chr>    <chr>   
 1 1849-01-01               26.7                          1.44 Côte D'… 5.63N   
 2 1849-02-01               27.4                          1.36 Côte D'… 5.63N   
 3 1849-03-01               28.1                          1.61 Côte D'… 5.63N   
 4 1849-04-01               26.1                          1.39 Côte D'… 5.63N   
 5 1849-05-01               25.4                          1.2  Côte D'… 5.63N   
 6 1849-06-01               24.8                          1.40 Côte D'… 5.63N   
 7 1849-07-01               24.1                          1.25 Côte D'… 5.63N   
 8 1849-08-01               23.6                          1.26 Côte D'… 5.63N   
 9 1849-09-01               23.7                          1.23 Côte D'… 5.63N   
10 1849-10-01               25.3                          1.18 Côte D'… 5.63N   
# ℹ 239,167 more rows
# ℹ 1 more variable: Longitude <chr>

You might have noticed that we haven’t put any column names in quotations, unlike what we did with selecting columns by name in base R. This is one quirk of the tidyverse to which you will need to pay special attention. We usually will not need to put column names in quotations.

Let’s practice!

Write a line of code to select the following data from the climate_df: average temperature, latitude and longitude

# Select three select columns
select(climate_df, AverageTemperature, Latitude, Longitude)

# A tibble: 239,177 × 3
   AverageTemperature Latitude Longitude
                <dbl> <chr>    <chr>    
 1               26.7 5.63N    3.23W    
 2               27.4 5.63N    3.23W    
 3               28.1 5.63N    3.23W    
 4               26.1 5.63N    3.23W    
 5               25.4 5.63N    3.23W    
 6               24.8 5.63N    3.23W    
 7               24.1 5.63N    3.23W    
 8               23.6 5.63N    3.23W    
 9               23.7 5.63N    3.23W    
10               25.3 5.63N    3.23W    
# ℹ 239,167 more rows

It is important to remember that the computer interprets everything literally. We need to tell the function the exact names of the columns. R will interpret latitude and Latitude as different things; it doesn’t know that they are probably the same!

filter()ing rows

filter() allows you filter rows by certain conditions. Recall that we did this a bit with base R.

# Base R
# Select rows where the average temperature was greater than 25
climate_df[climate_df$AverageTemperature > 25, ]

# A tibble: 79,690 × 7
   dt         AverageTemperature AverageTemperatureUnce…¹ City  Country Latitude
   <date>                  <dbl>                    <dbl> <chr> <chr>   <chr>   
 1 1849-01-01               26.7                     1.44 Abid… Côte D… 5.63N   
 2 1849-02-01               27.4                     1.36 Abid… Côte D… 5.63N   
 3 1849-03-01               28.1                     1.61 Abid… Côte D… 5.63N   
 4 1849-04-01               26.1                     1.39 Abid… Côte D… 5.63N   
 5 1849-05-01               25.4                     1.2  Abid… Côte D… 5.63N   
 6 1849-10-01               25.3                     1.18 Abid… Côte D… 5.63N   
 7 1849-11-01               26.3                     1.51 Abid… Côte D… 5.63N   
 8 1849-12-01               25.4                     1.84 Abid… Côte D… 5.63N   
 9 1850-01-01               25.8                     1.94 Abid… Côte D… 5.63N   
10 1850-02-01               27.9                     1.43 Abid… Côte D… 5.63N   
# ℹ 79,680 more rows
# ℹ abbreviated name: ¹​AverageTemperatureUncertainty
# ℹ 1 more variable: Longitude <chr>

The code above is, in my opinion, a bit unwieldy. Filter feels more intuitive. We still need the double equal signs, though!

# Filter same content as above, but with `tidyverse`
filter(climate_df, AverageTemperature > 25)

# A tibble: 68,688 × 7
   dt         AverageTemperature AverageTemperatureUnce…¹ City  Country Latitude
   <date>                  <dbl>                    <dbl> <chr> <chr>   <chr>   
 1 1849-01-01               26.7                     1.44 Abid… Côte D… 5.63N   
 2 1849-02-01               27.4                     1.36 Abid… Côte D… 5.63N   
 3 1849-03-01               28.1                     1.61 Abid… Côte D… 5.63N   
 4 1849-04-01               26.1                     1.39 Abid… Côte D… 5.63N   
 5 1849-05-01               25.4                     1.2  Abid… Côte D… 5.63N   
 6 1849-10-01               25.3                     1.18 Abid… Côte D… 5.63N   
 7 1849-11-01               26.3                     1.51 Abid… Côte D… 5.63N   
 8 1849-12-01               25.4                     1.84 Abid… Côte D… 5.63N   
 9 1850-01-01               25.8                     1.94 Abid… Côte D… 5.63N   
10 1850-02-01               27.9                     1.43 Abid… Côte D… 5.63N   
# ℹ 68,678 more rows
# ℹ abbreviated name: ¹​AverageTemperatureUncertainty
# ℹ 1 more variable: Longitude <chr>

# It is easy to write multiple conditions and to chain stuff together:

# Only rows that meet both conditions; you could also use "&" instead of ","
filter(climate_df, AverageTemperature > 25, Country == "United States")   

# A tibble: 61 × 7
   dt         AverageTemperature AverageTemperatureUnce…¹ City  Country Latitude
   <date>                  <dbl>                    <dbl> <chr> <chr>   <chr>   
 1 1761-07-01               27.8                    2.39  Chic… United… 42.59N  
 2 1868-07-01               25.1                    0.699 Chic… United… 42.59N  
 3 1900-08-01               25.2                    0.49  Chic… United… 42.59N  
 4 1921-07-01               25.6                    0.264 Chic… United… 42.59N  
 5 1947-08-01               26.4                    0.199 Chic… United… 42.59N  
 6 1955-08-01               25.3                    0.153 Chic… United… 42.59N  
 7 1959-08-01               25.1                    0.205 Chic… United… 42.59N  
 8 1988-08-01               25.4                    0.305 Chic… United… 42.59N  
 9 1995-08-01               25.9                    0.283 Chic… United… 42.59N  
10 2012-07-01               25.9                    0.516 Chic… United… 42.59N  
# ℹ 51 more rows
# ℹ abbreviated name: ¹​AverageTemperatureUncertainty
# ℹ 1 more variable: Longitude <chr>

# Rows that meet one or the other condition; the "|" symbol means "or"
filter(climate_df, AverageTemperature > 25 | Country == "United States" ) 

# A tibble: 77,082 × 7
   dt         AverageTemperature AverageTemperatureUnce…¹ City  Country Latitude
   <date>                  <dbl>                    <dbl> <chr> <chr>   <chr>   
 1 1849-01-01               26.7                     1.44 Abid… Côte D… 5.63N   
 2 1849-02-01               27.4                     1.36 Abid… Côte D… 5.63N   
 3 1849-03-01               28.1                     1.61 Abid… Côte D… 5.63N   
 4 1849-04-01               26.1                     1.39 Abid… Côte D… 5.63N   
 5 1849-05-01               25.4                     1.2  Abid… Côte D… 5.63N   
 6 1849-10-01               25.3                     1.18 Abid… Côte D… 5.63N   
 7 1849-11-01               26.3                     1.51 Abid… Côte D… 5.63N   
 8 1849-12-01               25.4                     1.84 Abid… Côte D… 5.63N   
 9 1850-01-01               25.8                     1.94 Abid… Côte D… 5.63N   
10 1850-02-01               27.9                     1.43 Abid… Côte D… 5.63N   
# ℹ 77,072 more rows
# ℹ abbreviated name: ¹​AverageTemperatureUncertainty
# ℹ 1 more variable: Longitude <chr>

# Pulls rows in which the Country column has either "United States" OR "Mexico"
filter(climate_df, Country == "United States" | Country == "Mexico")      

# A tibble: 10,600 × 7
   dt         AverageTemperature AverageTemperatureUnce…¹ City  Country Latitude
   <date>                  <dbl>                    <dbl> <chr> <chr>   <chr>   
 1 1743-11-01               5.44                     2.20 Chic… United… 42.59N  
 2 1743-12-01              NA                       NA    Chic… United… 42.59N  
 3 1744-01-01              NA                       NA    Chic… United… 42.59N  
 4 1744-02-01              NA                       NA    Chic… United… 42.59N  
 5 1744-03-01              NA                       NA    Chic… United… 42.59N  
 6 1744-04-01               8.77                     2.36 Chic… United… 42.59N  
 7 1744-05-01              11.6                      2.10 Chic… United… 42.59N  
 8 1744-06-01              18.0                      1.99 Chic… United… 42.59N  
 9 1744-07-01              21.7                      1.79 Chic… United… 42.59N  
10 1744-08-01              NA                       NA    Chic… United… 42.59N  
# ℹ 10,590 more rows
# ℹ abbreviated name: ¹​AverageTemperatureUncertainty
# ℹ 1 more variable: Longitude <chr>
…
This is helpful for a lot of reasons, including:

removing the clutter of creating a lot of intermediate objects in your work space, which reduces the chance of errors caused by using the wrong input object

makes things more human-readable (in addition to computer-readable)

The shortcut for typing a pipe is Ctrl + Shift + M (or Cmd + Shift + M on a Mac)

# Open climate_df %>% 
# Select City column
# (Returns City column)
climate_df %>% 
  select(dt, City)

# A tibble: 239,177 × 2
   dt         City   
   <date>     <chr>  
 1 1849-01-01 Abidjan
 2 1849-02-01 Abidjan
 3 1849-03-01 Abidjan
 4 1849-04-01 Abidjan
 5 1849-05-01 Abidjan
 6 1849-06-01 Abidjan
 7 1849-07-01 Abidjan
 8 1849-08-01 Abidjan
 9 1849-09-01 Abidjan
10 1849-10-01 Abidjan
# ℹ 239,167 more rows
…
Creating new variables with mutate()

Sometimes our data doesn’t have our data in exactly the format we want. For example, we might want our temperature data in Fahrenheit instead of Celsius.

The tidyverse has a function called mutate() that lets us create a new column. Often, we want to apply a function to the entire column or perform some type of calculation, such as converting temp from F to C.

To help us out, here is the equation for converting: Fahrenheit = Celsius * (9/5) + 32

climate_df %>% 
  # Select temperature column
  select(dt, AverageTemperature) %>% 
  # Create a new column for converted temperatures in Fahrenheit
  mutate(AverageTemperature_F = AverageTemperature * (9/5) + 32)

# A tibble: 239,177 × 3
   dt         AverageTemperature AverageTemperature_F
   <date>                  <dbl>                <dbl>
 1 1849-01-01               26.7                 80.1
 2 1849-02-01               27.4                 81.4
 3 1849-03-01               28.1                 82.6
 4 1849-04-01               26.1                 79.1
 5 1849-05-01               25.4                 77.8
 6 1849-06-01               24.8                 76.7
 7 1849-07-01               24.1                 75.3
 8 1849-08-01               23.6                 74.4
 9 1849-09-01               23.7                 74.6
10 1849-10-01               25.3                 77.5
# ℹ 239,167 more rows
…
apply some type of analysis to each group independently and

combine the data back together

The group_by() function lets us do this. It is most often used in combination with mutate() or summarize().

For example, we can use this method to calculate the mean temperatures of each country instead of the overall mean of the entire dataset. In order to do these, we create groups in the data based on the country.

# Group data by country, then find mean and standard deviation for each
climate_df %>% 
  group_by(Country) %>% 
  summarise(mean_temp = mean(AverageTemperature, na.rm = TRUE), 
            sd_temp = sd(AverageTemperature, na.rm = TRUE))

# A tibble: 49 × 3
   Country     mean_temp sd_temp
   <chr>           <dbl>   <dbl>
 1 Afghanistan     14.3     8.65
 2 Angola          23.7     1.98
 3 Australia       15.2     3.70
 4 Bangladesh      25.5     3.88
 5 Brazil          22.8     2.95
 6 Burma           26.7     1.87
 7 Canada           5.11   10.7 
 8 Chile            5.69    4.75
 9 China           11.8    11.4 
10 Colombia        20.9     1.15
# ℹ 39 more rows

Let’s practice!

Practice using the combination of group_by() and summarize() to calculate the minimum (min()) and maximum (max()) average temperatures for each city. Save this data frame as city_min_max

# Group data by city, then find minimum and maximum for each
climate_df %>% 
  group_by(City) %>% 
  summarize(min_temp = min(AverageTemperature, na.rm = TRUE),
            max_temp = max(AverageTemperature, na.rm = TRUE))

# A tibble: 100 × 3
   City           min_temp max_temp
   <chr>             <dbl>    <dbl>
 1 Abidjan           22.4      29.9
 2 Addis Abeba       14.5      21.2
 3 Ahmadabad         16.8      35.4
 4 Aleppo             0.67     32.6
 5 Alexandria        10.2      28.8
 6 Ankara            -6.28     26.0
 7 Baghdad            4.24     38.3
 8 Bangalore         20.3      29.7
 9 Bangkok           21.9      31.1
10 Belo Horizonte    15.9      25.2
# ℹ 90 more rows

Already accomplished this task? Try to figure out how you can keep the “Country” column in the final data frame. This is trickier than you might think!

# Group data by country, then group by city, then find minimum and maximum for each
climate_df %>% 
  group_by(Country, City) %>% 
  summarize(min_temp = min(AverageTemperature, na.rm = TRUE),
            max_temp = max(AverageTemperature, na.rm = TRUE))

# A tibble: 100 × 4
# Groups:   Country [49]
   Country     City           min_temp max_temp
   <chr>       <chr>             <dbl>    <dbl>
 1 Afghanistan Kabul             -2.08     27.6
 2 Angola      Luanda            18.7      27.2
 3 Australia   Melbourne          6.63     23.0
 4 Australia   Sydney            12.0      22.0
 5 Bangladesh  Dhaka             15.1      30.7
 6 Brazil      Belo Horizonte    15.9      25.2
 7 Brazil      Brasília          17.2      25.9
 8 Brazil      Fortaleza         24.3      30.0
 9 Brazil      Rio De Janeiro    18.5      28.8
10 Brazil      Salvador          21.0      28.3
# ℹ 90 more rows
…
